^C:\USERS\LEE SUNG HOON\DESKTOP\WORKSPACE\GREEN-TAOTHEOREM\MAIN.CPP
C:\USERS\LEE SUNG HOON\DESKTOP\WORKSPACE\GREEN-TAOTHEOREM\DEBUG\VC142.PDB
C:\USERS\LEE SUNG HOON\DESKTOP\WORKSPACE\GREEN-TAOTHEOREM\DEBUG\VC142.IDB
C:\USERS\LEE SUNG HOON\DESKTOP\WORKSPACE\GREEN-TAOTHEOREM\DEBUG\MAIN.OBJ
